%YAML 1.1
%TAG !u! tag:unity3d.com,2011:
--- !u!114 &11400000
MonoBehaviour:
  m_ObjectHideFlags: 0
  m_PrefabParentObject: {fileID: 0}
  m_PrefabInternal: {fileID: 0}
  m_GameObject: {fileID: 0}
  m_Enabled: 1
  m_EditorHideFlags: 0
  m_Script: {fileID: 11500000, guid: 9f3758f8f58fdef43803eb9be1df0608, type: 3}
  m_Name: PhotonServerSettings
  m_EditorClassIdentifier: 
  HostType: 1
  Protocol: 0
  ServerAddress: 
  ServerPort: 5055
  PreferredRegion: 1
  AppID: d4824965-5850-4d30-a8ad-1653f6863c49
  PingCloudServersOnAwake: 0
  RpcList:
  - Chat
  - ColorRpc
  - DestroyRpc
  - DoJump
  - InstantiateRpc
  - Marco
  - OnAwakeRPC
  - PickupItemInit
  - Polo
  - PunPickup
  - PunPickupSimple
  - PunRespawn
  - RequestForPickupTimes
  - TaggedPlayer
  - activate
  - networkHandleBodyPickup
  - networkHandleBodyRelease
  - networkHandleBodyThrow
  - turnOffLight
  - turnOnLight
  - networkToggleInvisibility
  - networkPlaySpookySound
  - networkTranslateGame
  - playerEnteredRoom
  - playerLeftRoom
  - instantiateKinematicBodyForGhost
  - lanternCooldown
  - updateHealth
  - updateComfort
  - PickFireplaceSpawn
  - updateDoor
  - networkDropFurniture
  - PickUpFurniture
  - pushDoor
  - closeDoor
  - openDoor
  - toggleLockDoor
  - networkBreakMirror
  - networkRespawn
  - networkToggleLightSource
  - networkDisableLightSource
  - networkEnableLightSource
  - closeAndLockDoor
  - ghostInteractDoor
  - lockDoor
  - openLockedDoor
  - SpawnFireplace
  - startMusic
  - stopMusic
  - addBody
  - addGhost
  - addHuman
  - removeBody
  - removeGhost
  - removeHuman
  - networkPushBack
  - networkHandleWoodPickup
  - networkHandleWoodRelease
  - updateFireplaceInventory
  - networkToggleArrow
  - ActivateControl
  - DeactivateControl
  - ToggleGravity
  - NetworkToggleGravity
  - NetworkReceivePing
  - LightFireplace
  - destroyHuman
  - addFirePlace
  - addFireWood
  - addGasoline
  - addMatches
  - removeFireWood
  - removeGasoline
  - removeMathes
  - EnableFire1
  - EnableFire2
  - EnableFire3
  - RequestPull
  - RetrievePull
  - hitByFurniture
  - networkedPlaySoundWithCallback
  - networkPlaySounds
  - networkedPlaySound
  - removeMatches
  DisableAutoOpenWizard: 0
